{
  "_documentation": {
    "title": "Toys API - Exemples de réponses JSON harmonisées",
    "version": "3.2.13",
    "description": "Ce fichier contient des exemples complets de retours JSON harmonisés pour chaque type de contenu",
    "generated": "2025-12-21",
    "harmonization": {
      "search": "Tous les endpoints /search retournent 10 champs harmonisés",
      "details": "Tous les endpoints /details retournent des schémas normalisés par type"
    }
  },

  "_search_schema": {
    "_description": "Schéma harmonisé pour tous les résultats de recherche (10 champs)",
    "fields": {
      "type": "Type de contenu (construct_toy, book, movie, anime, manga, videogame, album, collectible, etc.)",
      "source": "Provider source (lego, playmobil, tmdb, jikan, mangadex, deezer, etc.)",
      "sourceId": "ID original du provider (string ou number)",
      "name": "Nom affiché (traduit si disponible)",
      "name_original": "Nom original si différent (ou null)",
      "description": "Description courte (string ou null)",
      "year": "Année de sortie/publication (number ou null)",
      "image": "URL de l'image principale/thumbnail",
      "src_url": "URL source du provider",
      "detailUrl": "Endpoint interne pour obtenir les détails"
    }
  },

  "search_examples": {
    "_description": "Exemples de résultats de recherche harmonisés par provider",

    "construct_toy_lego": {
      "type": "construct_toy",
      "source": "lego",
      "sourceId": "75419",
      "name": "L'Étoile de la Mort",
      "name_original": "L'Étoile de la Mort",
      "description": null,
      "year": null,
      "image": "https://www.lego.com/cdn/cs/set/assets/blt8c9b3ec1adec32b2/75419_Prod_en-gb.png",
      "src_url": "https://www.lego.com/product/75419",
      "detailUrl": "/lego/details?detailUrl=%2Flego%2Fproduct%2F75419"
    },

    "construct_toy_playmobil": {
      "type": "construct_toy",
      "source": "playmobil",
      "sourceId": "71144",
      "name": "Véhicule d'intervention des forces spéciales",
      "name_original": "Vehicule Dintervention Des Forces Speciales",
      "description": null,
      "year": null,
      "image": "https://media.playmobil.com/i/playmobil/71144_product_detail?w=200",
      "src_url": "https://www.playmobil.com/fr-fr/vehicule-dintervention-des-forces-speciales/71144.html",
      "detailUrl": "/playmobil/details?detailUrl=%2Fplaymobil%2Fproduct%2F71144"
    },

    "anime_jikan": {
      "type": "anime",
      "source": "jikan",
      "sourceId": 20,
      "name": "Naruto",
      "name_original": "Naruto",
      "description": "Twelve years ago, a colossal demon fox terrorized the world...",
      "year": 2002,
      "image": "https://cdn.myanimelist.net/images/anime/1141/142503l.jpg",
      "src_url": "https://myanimelist.net/anime/20/Naruto",
      "detailUrl": "/jikan/details?detailUrl=%2Fjikan%2Fanime%2F20"
    },

    "manga_mangadex": {
      "type": "manga",
      "source": "mangadex",
      "sourceId": "a1c7c817-4e59-43b7-9365-09675a149a6f",
      "name": "ONE PIECE",
      "name_original": null,
      "description": null,
      "year": null,
      "image": null,
      "src_url": "https://mangadex.org/title/a1c7c817-4e59-43b7-9365-09675a149a6f",
      "detailUrl": "/mangadex/details?detailUrl=%2Fmangadex%2Fmanga%2Fa1c7c817-4e59-43b7-9365-09675a149a6f"
    },

    "movie_imdb": {
      "type": "movie",
      "source": "imdb",
      "sourceId": "tt1375666",
      "name": "Inception",
      "name_original": "Inception",
      "description": null,
      "year": 2010,
      "image": "https://m.media-amazon.com/images/M/MV5BMjAxMzY3NjcxNF5BMl5BanBnXkFtZTcwNTI5OTM0Mw@@._V1_.jpg",
      "src_url": "https://www.imdb.com/title/tt1375666/",
      "detailUrl": "/imdb/details?detailUrl=%2Fimdb%2Ftitle%2Ftt1375666"
    },

    "book_openlibrary": {
      "type": "book",
      "source": "openlibrary",
      "sourceId": "OL893415W",
      "name": "Dune",
      "name_original": "Dune",
      "description": null,
      "year": null,
      "image": null,
      "src_url": null,
      "detailUrl": "/openlibrary/details?detailUrl=%2Fopenlibrary%2Fbook%2FOL893415W"
    },

    "comic_bedetheque": {
      "type": "serie",
      "source": "bedetheque",
      "sourceId": 59,
      "name": "Asterix",
      "name_original": "Asterix",
      "description": null,
      "year": null,
      "image": null,
      "src_url": "https://www.bedetheque.com/serie-59-BD-Asterix.html",
      "detailUrl": "/bedetheque/details?detailUrl=%2Fbedetheque%2Fserie%2F59"
    },

    "album_deezer": {
      "type": "album",
      "source": "deezer",
      "sourceId": 302127,
      "name": "Discovery",
      "name_original": "Discovery",
      "description": null,
      "year": null,
      "image": null,
      "src_url": null,
      "detailUrl": "/deezer/details?detailUrl=%2Fdeezer%2Falbum%2F302127"
    },

    "collectible_luluberlu": {
      "type": "collectible",
      "source": "luluberlu",
      "sourceId": "3155",
      "name": "Goldorak (Goldrake) - Atlantic - Golgoth, le robot de Vega (neuf en boite)",
      "name_original": "Goldorak (Goldrake) - Atlantic - Golgoth, le robot de Vega (neuf en boite)",
      "description": null,
      "year": null,
      "image": "https://www.lulu-berlu.com/upload/image/goldorak--goldrake----atlantic---golgoth--le-robot-de-vega--neuf-en-boite--p-image-577896-moyenne.jpg",
      "src_url": "https://www.lulu-berlu.com/goldorak-goldrake-atlantic-golgoth-le-robot-de-vega-neuf-en-boite-a3155.html",
      "detailUrl": "/luluberlu/details?detailUrl=%2Fluluberlu%2Fitem%2F3155"
    },

    "console_consolevariations": {
      "type": "collectible",
      "source": "consolevariations",
      "sourceId": "nintendo-snes-playtronic-control-set",
      "name": "Nintendo SNES Playtronic Control Set",
      "name_original": "Nintendo SNES Playtronic Control Set",
      "description": null,
      "year": null,
      "image": "https://cdn.consolevariations.com/37178/example.png",
      "src_url": "https://consolevariations.com/variation/nintendo-snes-playtronic-control-set",
      "detailUrl": "/consolevariations/details?detailUrl=%2Fconsolevariations%2Fitem%2Fnintendo-snes-playtronic-control-set"
    },

    "stickers_paninimania": {
      "type": "album",
      "source": "paninimania",
      "sourceId": "7523",
      "name": "# Fiers d'être Bleus - Sticker Album - Panini - 2023",
      "name_original": "# Fiers d'être Bleus - Sticker Album - Panini - 2023",
      "description": null,
      "year": "aout 2023",
      "image": null,
      "src_url": "https://www.paninimania.com/?pag=cid508_alb&idf=15&idm=7523",
      "detailUrl": "/paninimania/details?detailUrl=%2Fpaninimania%2Falbum%2F7523"
    }
  },

  "detail_examples": {
    "_description": "Exemples de réponses détaillées normalisées par type",

    "construct_toy_lego": {
      "success": true,
      "data": {
        "type": "construct_toy",
        "source": "lego",
        "sourceId": "75192",
        "sourceRef": "75192",
        "productCode": "75192",
        "ean": null,
        "upc": null,
        "name": "Millennium Falcon",
        "name_original": null,
        "description": null,
        "description_original": null,
        "brand": "LEGO",
        "theme": "Star Wars",
        "theme_original": null,
        "subtheme": null,
        "subtheme_original": null,
        "franchise": null,
        "specs": {
          "pieceCount": 7541,
          "figureCount": 16,
          "minAge": 16,
          "maxAge": null,
          "ageRange": "16+",
          "weight": null,
          "dimensions": {
            "width": null,
            "height": null,
            "depth": null,
            "unit": "cm"
          },
          "scale": null,
          "difficulty": null
        },
        "packaging": {
          "format": null,
          "weight": null,
          "dimensions": {
            "width": null,
            "height": null,
            "depth": null
          }
        },
        "pricing": {
          "price": "849,99 €",
          "originalPrice": null,
          "currency": "EUR",
          "currencySymbol": "€",
          "formatted": "849,99 €",
          "discount": null,
          "onSale": false,
          "pricePerPiece": null
        },
        "availability": {
          "status": "unknown",
          "statusText": "Disponible",
          "statusText_original": null,
          "inStock": false,
          "quantity": null,
          "isRetired": null,
          "isComingSoon": null,
          "releaseDate": null,
          "releaseYear": null,
          "retireDate": null,
          "retireYear": null
        },
        "rating": {
          "average": 4.5,
          "count": 129,
          "distribution": null
        },
        "instructions": {
          "available": true,
          "count": 3,
          "manuals": [
            {
              "id": "6564020",
              "description": "Manuel 6564020",
              "pdfUrl": "https://www.lego.com/cdn/product-assets/product.bi.core.pdf/6564020.pdf",
              "sequence": null
            }
          ]
        },
        "images": {
          "primary": "https://www.lego.com/cdn/cs/set/assets/example.png",
          "thumbnail": null,
          "gallery": []
        },
        "urls": {
          "product": "https://www.lego.com/fr-fr/product/millennium-falcon-75192",
          "official": null,
          "instructions": null
        },
        "tags": [],
        "categories": [],
        "meta": {
          "scrapedAt": "2025-12-21T13:00:00.000Z",
          "locale": "fr-FR",
          "currency": "EUR"
        }
      },
      "meta": {
        "source": "lego",
        "responseTime": 1234,
        "cached": false,
        "lang": "fr"
      }
    },

    "construct_toy_playmobil": {
      "success": true,
      "data": {
        "type": "construct_toy",
        "source": "playmobil",
        "sourceId": "71144",
        "sourceRef": "71144",
        "productCode": "71144",
        "sku": null,
        "ean": null,
        "upc": null,
        "name": "Véhicule d'intervention des forces spéciales",
        "name_original": null,
        "description": "Comprend 73 pièces et deux figurines PLAYMOBIL – le véhicule tout-terrain SWAT ultime avec lumières et sons pour des aventures policières réalistes",
        "description_original": null,
        "slug": "71144",
        "brand": "Playmobil",
        "theme": "City_action",
        "theme_original": null,
        "subtheme": "police",
        "subtheme_original": null,
        "franchise": null,
        "specs": {
          "pieceCount": 73,
          "figureCount": null,
          "minAge": 5,
          "maxAge": null,
          "ageRange": "5+",
          "weight": null,
          "dimensions": {
            "width": null,
            "height": null,
            "depth": null,
            "unit": "cm"
          },
          "scale": null,
          "difficulty": null
        },
        "packaging": {
          "format": null,
          "weight": null,
          "dimensions": {
            "width": null,
            "height": null,
            "depth": null
          }
        },
        "pricing": {
          "price": 51.99,
          "originalPrice": null,
          "currency": "EUR",
          "currencySymbol": "€",
          "formatted": "51,99 €",
          "discount": null,
          "onSale": false,
          "pricePerPiece": 0.712
        },
        "availability": {
          "status": "in_stock",
          "statusText": null,
          "statusText_original": null,
          "inStock": true,
          "quantity": null,
          "isRetired": null,
          "isComingSoon": null,
          "releaseDate": null,
          "releaseYear": null,
          "retireDate": null,
          "retireYear": null
        },
        "rating": {
          "average": null,
          "count": null,
          "distribution": null
        },
        "images": {
          "primary": "https://media.playmobil.com/i/playmobil/71144_product_detail",
          "thumbnail": null,
          "gallery": []
        },
        "urls": {
          "product": "https://www.playmobil.com/fr-fr/vehicule-dintervention-des-forces-speciales/71144.html",
          "official": null,
          "instructions": null
        },
        "tags": [],
        "categories": [],
        "meta": {
          "scrapedAt": "2025-12-21T13:00:00.000Z",
          "locale": "fr-FR",
          "currency": "EUR"
        }
      },
      "meta": {
        "source": "playmobil",
        "responseTime": 2345,
        "cached": false,
        "lang": "fr"
      }
    },

    "anime_jikan": {
      "success": true,
      "data": {
        "type": "anime",
        "provider": "jikan",
        "provider_id": "20",
        "mal_id": 20,
        "title": "Naruto",
        "original_title": "ナルト",
        "title_english": "Naruto",
        "alternative_titles": [
          "Naruto",
          "NARUTO",
          "ナルト"
        ],
        "description": "Twelve years ago, a colossal demon fox terrorized the world. During the monster's attack on the Hidden Leaf Village, the Hokage—the village's leader and most powerful ninja—sacrifices himself to seal the beast inside a newborn...",
        "anime_type": "TV",
        "year": 2002,
        "end_year": 2007,
        "first_air_date": "2002-10-03",
        "last_air_date": "2007-02-08",
        "status": "Ended",
        "is_airing": false,
        "total_episodes": 220,
        "episode_runtime": 23,
        "season": "fall",
        "genres": [
          "Action",
          "Adventure",
          "Fantasy"
        ],
        "themes": [
          "Martial Arts"
        ],
        "demographics": [
          "Shounen"
        ],
        "studios": [
          "Studio Pierrot"
        ],
        "producers": [
          "TV Tokyo",
          "Aniplex"
        ],
        "licensors": [
          "VIZ Media"
        ],
        "source_material": "Manga",
        "content_rating": "PG-13 - Teens 13 or older",
        "rating": {
          "value": 8.02,
          "count": 2104708,
          "source": "myanimelist"
        },
        "rank": 672,
        "popularity": 9,
        "members_count": 3060174,
        "favorites_count": 85027,
        "images": {
          "poster": "https://cdn.myanimelist.net/images/anime/1141/142503l.jpg",
          "poster_small": "https://cdn.myanimelist.net/images/anime/1141/142503t.jpg"
        },
        "trailer": {
          "youtube_id": null,
          "url": null,
          "embed_url": null
        },
        "urls": {
          "mal": "https://myanimelist.net/anime/20/Naruto"
        }
      },
      "meta": {
        "source": "jikan",
        "responseTime": 567,
        "cached": false,
        "lang": "en"
      }
    },

    "manga_mangadex": {
      "success": true,
      "data": {
        "type": "manga",
        "source": "mangadex",
        "sourceId": "a1c7c817-4e59-43b7-9365-09675a149a6f",
        "name": "ONE PIECE",
        "name_original": "ONE PIECE",
        "description": "Gol D. Roger, a man referred to as the Pirate King, is set to be executed by the World Government...",
        "status": "ongoing",
        "year": 1997,
        "contentRating": "safe",
        "originalLanguage": "ja",
        "availableTranslatedLanguages": ["en", "fr", "es", "de", "pt-br"],
        "authors": [
          {
            "id": "author-uuid",
            "name": "Oda Eiichiro",
            "role": "author"
          }
        ],
        "artists": [
          {
            "id": "artist-uuid",
            "name": "Oda Eiichiro",
            "role": "artist"
          }
        ],
        "genres": [
          "Action",
          "Adventure",
          "Comedy",
          "Fantasy"
        ],
        "themes": [
          "Pirates"
        ],
        "demographics": [
          "Shounen"
        ],
        "images": {
          "cover": "https://uploads.mangadex.org/covers/a1c7c817-4e59-43b7-9365-09675a149a6f/cover.jpg",
          "thumbnail": "https://uploads.mangadex.org/covers/a1c7c817-4e59-43b7-9365-09675a149a6f/cover.256.jpg"
        },
        "urls": {
          "mangadex": "https://mangadex.org/title/a1c7c817-4e59-43b7-9365-09675a149a6f"
        },
        "statistics": {
          "rating": {
            "average": 9.2,
            "bayesian": 8.9
          },
          "follows": 150000
        },
        "chapters": {
          "total": null,
          "latestChapter": "1135"
        },
        "volumes": {
          "total": null,
          "latestVolume": "110"
        }
      },
      "meta": {
        "source": "mangadex",
        "responseTime": 890,
        "cached": false,
        "lang": "fr"
      }
    }
  },

  "response_wrappers": {
    "_description": "Structure des wrappers de réponse API",

    "search_response": {
      "success": true,
      "provider": "lego",
      "query": "star wars",
      "count": 20,
      "items": ["... array of search results with 10 harmonized fields each ..."],
      "pagination": {
        "page": 1,
        "pageSize": 20,
        "totalResults": 150,
        "totalPages": 8,
        "hasMore": true
      },
      "meta": {
        "lang": "fr",
        "locale": "fr-FR",
        "autoTrad": false,
        "fetchedAt": "2025-12-21T13:00:00.000Z"
      }
    },

    "detail_response": {
      "success": true,
      "data": "... normalized detail object according to type schema ...",
      "meta": {
        "source": "lego",
        "responseTime": 1234,
        "cached": false,
        "lang": "fr"
      }
    },

    "error_response": {
      "success": false,
      "error": {
        "code": "NOT_FOUND",
        "message": "Produit non trouvé",
        "details": "Le produit avec l'ID 99999 n'existe pas"
      },
      "meta": {
        "source": "lego",
        "responseTime": 234
      }
    }
  },

  "providers_summary": {
    "_description": "Récapitulatif des providers et leurs types de contenu",
    
    "construct_toy": {
      "providers": ["lego", "playmobil", "klickypedia", "mega", "rebrickable"],
      "search_fields": "10 champs harmonisés",
      "detail_schema": "construct_toy (specs, pricing, availability, instructions, etc.)"
    },
    
    "book": {
      "providers": ["googlebooks", "openlibrary", "bedetheque", "comicvine"],
      "search_fields": "10 champs harmonisés + authors (optionnel)",
      "detail_schema": "book (isbn, authors, publisher, publication, format, etc.)"
    },
    
    "movie_series": {
      "providers": ["tmdb", "tvdb", "imdb"],
      "search_fields": "10 champs harmonisés",
      "detail_schema": "movie/series (production, crew, cast, ratings, etc.)"
    },
    
    "anime_manga": {
      "providers": ["jikan", "mangadex"],
      "search_fields": "10 champs harmonisés + score/episodes (optionnel)",
      "detail_schema": "anime/manga (titles, format, broadcast, genres, themes, etc.)"
    },
    
    "videogame": {
      "providers": ["rawg", "igdb", "jvc"],
      "search_fields": "10 champs harmonisés",
      "detail_schema": "videogame (platforms, development, gameplay, ratings, etc.)"
    },
    
    "music": {
      "providers": ["deezer", "itunes", "musicbrainz", "discogs"],
      "search_fields": "10 champs harmonisés + artist (optionnel)",
      "detail_schema": "music_album (artists, album, tracks, genres, etc.)"
    },
    
    "collectible": {
      "providers": ["luluberlu", "coleka", "transformerland", "consolevariations"],
      "search_fields": "10 champs harmonisés + price (optionnel)",
      "detail_schema": "collectible (brand, specs, condition, pricing, etc.)"
    },
    
    "stickers": {
      "providers": ["paninimania"],
      "search_fields": "10 champs harmonisés",
      "detail_schema": "stickers (publisher, album, content, theme, etc.)"
    },
    
    "amazon": {
      "providers": ["amazon_generic"],
      "search_fields": "10 champs harmonisés + price/currency",
      "detail_schema": "product (multi-type based on category)"
    }
  }
}
